<?xml version="1.0" encoding="UTF-8"?>
<!DOCTYPE svg PUBLIC "-//W3C//DTD SVG 1.0//EN" "http://www.w3.org/TR/2001/REC-SVG-20010904/DTD/svg10.dtd">
<!-- Creator: CorelDRAW 2018 (64 Bit Versión de evaluación) -->
<svg xmlns="http://www.w3.org/2000/svg" xml:space="preserve" width="60px" height="60px" version="1.0" style="shape-rendering:geometricPrecision; text-rendering:geometricPrecision; image-rendering:optimizeQuality; fill-rule:evenodd; clip-rule:evenodd"
viewBox="0 0 2.91 2.91"
 xmlns:xlink="http://www.w3.org/1999/xlink">
 <defs>
  <style type="text/css">
   <![CDATA[
    .fil2 {fill:none}
    .fil1 {fill:#5CC6D0}
    .fil0 {fill:#7A75B5}
   ]]>
  </style>
 </defs>
 <g id="Capa_x0020_1">
  <metadata id="CorelCorpID_0Corel-Layer"/>
  <g id="_2735485050752">
   <path class="fil0" d="M0.59 0.96l0.09 0 0 0.14c-0.05,0.01 -0.09,0.06 -0.09,0.12l0 0.73c0,0.07 0.05,0.12 0.12,0.12l1.49 0c0.06,0 0.12,-0.05 0.12,-0.12l0 -0.73c0,-0.07 -0.06,-0.13 -0.12,-0.13l-0.21 0 0 -0.13 0.33 0c0.08,0 0.15,0.07 0.15,0.15l0 0.94c0,0.09 -0.07,0.16 -0.15,0.16l-1.73 0c-0.08,0 -0.15,-0.07 -0.15,-0.16l0 -0.94c0,-0.08 0.07,-0.15 0.15,-0.15zm0.27 0l0.1 0 0 0.13 -0.1 0 0 -0.13z"/>
   <path class="fil0" d="M0.37 2.44l2.16 0c0.05,0 0.08,-0.04 0.08,-0.08l0 0c0,-0.05 -0.03,-0.08 -0.08,-0.08l-2.16 0c-0.04,0 -0.07,0.03 -0.07,0.08l0 0c0,0.04 0.03,0.08 0.07,0.08zm0.78 -0.04l0.61 0c0.02,0 0.04,-0.02 0.04,-0.04l0 0c0,-0.02 -0.02,-0.04 -0.04,-0.04l-0.61 0c-0.02,0 -0.04,0.02 -0.04,0.04l0 0c0,0.02 0.02,0.04 0.04,0.04z"/>
   <g>
    <polygon class="fil1" points="1.45,1.05 0.55,0.69 1.45,0.47 2.36,0.69 "/>
    <path class="fil1" d="M1.02 1.13c0.3,0.18 0.59,0.17 0.89,0l0 -0.2 -0.46 0.18 -0.43 -0.18 0 0.2z"/>
    <rect class="fil1" x="0.73" y="1.02" width="0.09" height="0.11"/>
    <path class="fil1" d="M0.73 1.16c0.03,0 0.06,0 0.09,0 0.05,0.08 0.05,0.18 0.04,0.29 -0.05,0 -0.1,0 -0.16,0 0,-0.11 0,-0.21 0.03,-0.29z"/>
    <rect class="fil1" x="0.75" y="0.73" width="0.05" height="0.27"/>
   </g>
  </g>
  <rect class="fil2" width="2.91" height="2.91"/>
 </g>
</svg>
